SD3/VERILOG/aula3-8b10b/sim_SERDES/dump.vcd
$date
	Wed Jun 18 22:21:42 2025
$end
$version
	Questa Lattice OEM Edition 2024.2
$end
$timescale
	1ns
$end

$scope module test_8b10b $end
$var reg 9 ! testin [8:0] $end
$var reg 1 " dispin $end
$var reg 11 # i [10:0] $end
$var wire 1 $ testout [9] $end
$var wire 1 % testout [8] $end
$var wire 1 & testout [7] $end
$var wire 1 ' testout [6] $end
$var wire 1 ( testout [5] $end
$var wire 1 ) testout [4] $end
$var wire 1 * testout [3] $end
$var wire 1 + testout [2] $end
$var wire 1 , testout [1] $end
$var wire 1 - testout [0] $end
$var wire 1 . dispout $end
$var wire 1 / decodedisp $end
$var wire 1 0 decodeerr $end
$var wire 1 1 disperr $end
$var wire 1 2 decodeout [8] $end
$var wire 1 3 decodeout [7] $end
$var wire 1 4 decodeout [6] $end
$var wire 1 5 decodeout [5] $end
$var wire 1 6 decodeout [4] $end
$var wire 1 7 decodeout [3] $end
$var wire 1 8 decodeout [2] $end
$var wire 1 9 decodeout [1] $end
$var wire 1 : decodeout [0] $end
$var wire 1 ; code [29] $end
$var wire 1 < code [28] $end
$var wire 1 = code [27] $end
$var wire 1 > code [26] $end
$var wire 1 ? code [25] $end
$var wire 1 @ code [24] $end
$var wire 1 A code [23] $end
$var wire 1 B code [22] $end
$var wire 1 C code [21] $end
$var wire 1 D code [20] $end
$var wire 1 E code [19] $end
$var wire 1 F code [18] $end
$var wire 1 G code [17] $end
$var wire 1 H code [16] $end
$var wire 1 I code [15] $end
$var wire 1 J code [14] $end
$var wire 1 K code [13] $end
$var wire 1 L code [12] $end
$var wire 1 M code [11] $end
$var wire 1 N code [10] $end
$var wire 1 O code [9] $end
$var wire 1 P code [8] $end
$var wire 1 Q code [7] $end
$var wire 1 R code [6] $end
$var wire 1 S code [5] $end
$var wire 1 T code [4] $end
$var wire 1 U code [3] $end
$var wire 1 V code [2] $end
$var wire 1 W code [1] $end
$var wire 1 X code [0] $end
$var wire 1 Y expect_0_disp [9] $end
$var wire 1 Z expect_0_disp [8] $end
$var wire 1 [ expect_0_disp [7] $end
$var wire 1 \ expect_0_disp [6] $end
$var wire 1 ] expect_0_disp [5] $end
$var wire 1 ^ expect_0_disp [4] $end
$var wire 1 _ expect_0_disp [3] $end
$var wire 1 ` expect_0_disp [2] $end
$var wire 1 a expect_0_disp [1] $end
$var wire 1 b expect_0_disp [0] $end
$var wire 1 c expect_1_disp [9] $end
$var wire 1 d expect_1_disp [8] $end
$var wire 1 e expect_1_disp [7] $end
$var wire 1 f expect_1_disp [6] $end
$var wire 1 g expect_1_disp [5] $end
$var wire 1 h expect_1_disp [4] $end
$var wire 1 i expect_1_disp [3] $end
$var wire 1 j expect_1_disp [2] $end
$var wire 1 k expect_1_disp [1] $end
$var wire 1 l expect_1_disp [0] $end
$var reg 1024 m legal [1023:0] $end
$var reg 2048 n okdisp [2047:0] $end
$var reg 11 o codedisp0 [10:0] $end
$var reg 11 p codedisp1 [10:0] $end
$var reg 10 q decodein [9:0] $end
$var reg 1 r decdispin $end
$var integer 32 s errors $end

$scope module DUTE $end
$var wire 1 t datain [8] $end
$var wire 1 u datain [7] $end
$var wire 1 v datain [6] $end
$var wire 1 w datain [5] $end
$var wire 1 x datain [4] $end
$var wire 1 y datain [3] $end
$var wire 1 z datain [2] $end
$var wire 1 { datain [1] $end
$var wire 1 | datain [0] $end
$var wire 1 } dispin $end
$var wire 1 $ dataout [9] $end
$var wire 1 % dataout [8] $end
$var wire 1 & dataout [7] $end
$var wire 1 ' dataout [6] $end
$var wire 1 ( dataout [5] $end
$var wire 1 ) dataout [4] $end
$var wire 1 * dataout [3] $end
$var wire 1 + dataout [2] $end
$var wire 1 , dataout [1] $end
$var wire 1 - dataout [0] $end
$var wire 1 . dispout $end
$var wire 1 ~ ai $end
$var wire 1 !! bi $end
$var wire 1 "! ci $end
$var wire 1 #! di $end
$var wire 1 $! ei $end
$var wire 1 %! fi $end
$var wire 1 &! gi $end
$var wire 1 '! hi $end
$var wire 1 (! ki $end
$var wire 1 )! aeqb $end
$var wire 1 *! ceqd $end
$var wire 1 +! l22 $end
$var wire 1 ,! l40 $end
$var wire 1 -! l04 $end
$var wire 1 .! l13 $end
$var wire 1 /! l31 $end
$var wire 1 0! ao $end
$var wire 1 1! bo $end
$var wire 1 2! co $end
$var wire 1 3! do $end
$var wire 1 4! eo $end
$var wire 1 5! io $end
$var wire 1 6! pd1s6 $end
$var wire 1 7! nd1s6 $end
$var wire 1 8! ndos6 $end
$var wire 1 9! pdos6 $end
$var wire 1 :! alt7 $end
$var wire 1 ;! fo $end
$var wire 1 <! go $end
$var wire 1 =! ho $end
$var wire 1 >! jo $end
$var wire 1 ?! nd1s4 $end
$var wire 1 @! pd1s4 $end
$var wire 1 A! ndos4 $end
$var wire 1 B! pdos4 $end
$var wire 1 C! illegalk $end
$var wire 1 D! compls6 $end
$var wire 1 E! disp6 $end
$var wire 1 F! compls4 $end
$upscope $end

$scope module DUTD $end
$var wire 1 G! datain [9] $end
$var wire 1 H! datain [8] $end
$var wire 1 I! datain [7] $end
$var wire 1 J! datain [6] $end
$var wire 1 K! datain [5] $end
$var wire 1 L! datain [4] $end
$var wire 1 M! datain [3] $end
$var wire 1 N! datain [2] $end
$var wire 1 O! datain [1] $end
$var wire 1 P! datain [0] $end
$var wire 1 Q! dispin $end
$var wire 1 2 dataout [8] $end
$var wire 1 3 dataout [7] $end
$var wire 1 4 dataout [6] $end
$var wire 1 5 dataout [5] $end
$var wire 1 6 dataout [4] $end
$var wire 1 7 dataout [3] $end
$var wire 1 8 dataout [2] $end
$var wire 1 9 dataout [1] $end
$var wire 1 : dataout [0] $end
$var wire 1 / dispout $end
$var wire 1 0 code_err $end
$var wire 1 1 disp_err $end
$var wire 1 R! ai $end
$var wire 1 S! bi $end
$var wire 1 T! ci $end
$var wire 1 U! di $end
$var wire 1 V! ei $end
$var wire 1 W! ii $end
$var wire 1 X! fi $end
$var wire 1 Y! gi $end
$var wire 1 Z! hi $end
$var wire 1 [! ji $end
$var wire 1 \! aeqb $end
$var wire 1 ]! ceqd $end
$var wire 1 ^! p22 $end
$var wire 1 _! p13 $end
$var wire 1 `! p31 $end
$var wire 1 a! p40 $end
$var wire 1 b! p04 $end
$var wire 1 c! disp6a $end
$var wire 1 d! disp6a2 $end
$var wire 1 e! disp6a0 $end
$var wire 1 f! disp6b $end
$var wire 1 g! p22bceeqi $end
$var wire 1 h! p22bncneeqi $end
$var wire 1 i! p13in $end
$var wire 1 j! p31i $end
$var wire 1 k! p13dei $end
$var wire 1 l! p22aceeqi $end
$var wire 1 m! p22ancneeqi $end
$var wire 1 n! p13en $end
$var wire 1 o! anbnenin $end
$var wire 1 p! abei $end
$var wire 1 q! cdei $end
$var wire 1 r! cndnenin $end
$var wire 1 s! compa $end
$var wire 1 t! compb $end
$var wire 1 u! compc $end
$var wire 1 v! compd $end
$var wire 1 w! compe $end
$var wire 1 x! ao $end
$var wire 1 y! bo $end
$var wire 1 z! co $end
$var wire 1 {! do $end
$var wire 1 |! eo $end
$var wire 1 }! p22enin $end
$var wire 1 ~! p22ei $end
$var wire 1 !" p31dnenin $end
$var wire 1 "" p31e $end
$var wire 1 #" feqg $end
$var wire 1 $" heqj $end
$var wire 1 %" fghj22 $end
$var wire 1 &" fghjp13 $end
$var wire 1 '" fghjp31 $end
$var wire 1 (" ko $end
$var wire 1 )" alt7 $end
$var wire 1 *" k28 $end
$var wire 1 +" k28p $end
$var wire 1 ," fo $end
$var wire 1 -" go $end
$var wire 1 ." ho $end
$var wire 1 /" disp6p $end
$var wire 1 0" disp6n $end
$var wire 1 1" disp4p $end
$var wire 1 2" disp4n $end
$upscope $end
$upscope $end
$enddefinitions $end
#0
$dumpvars
bx !
0"
b0 #
bx m
bx n
bx o
bx p
bx q
xr
b0 s
x-
x,
x+
x*
x)
x(
x'
x&
x%
x$
x.
x/
x0
x1
x:
x9
x8
x7
x6
x5
x4
x3
x2
xX
xW
xV
xU
xT
xS
xR
xQ
xP
xO
xN
xM
xL
xK
xJ
xI
xH
xG
xF
xE
xD
xC
xB
xA
x@
x?
x>
x=
x<
x;
xb
xa
x`
x_
x^
x]
x\
x[
xZ
xY
xl
xk
xj
xi
xh
xg
xf
xe
xd
xc
x~
x!!
x"!
x#!
x$!
x%!
x&!
x'!
x(!
x)!
x*!
x+!
x,!
x-!
x.!
x/!
x0!
x1!
x2!
x3!
x4!
x5!
x6!
x7!
x8!
x9!
x:!
x;!
x<!
x=!
x>!
x?!
x@!
xA!
xB!
xC!
xD!
xE!
xF!
xR!
xS!
xT!
xU!
xV!
xW!
xX!
xY!
xZ!
x[!
x\!
x]!
x^!
x_!
x`!
xa!
xb!
xc!
xd!
xe!
xf!
xg!
xh!
xi!
xj!
xk!
xl!
xm!
xn!
xo!
xp!
xq!
xr!
xs!
xt!
xu!
xv!
xw!
xx!
xy!
xz!
x{!
x|!
x}!
x~!
x!"
x""
x#"
x$"
x%"
x&"
x'"
x("
x)"
x*"
x+"
x,"
x-"
x."
x/"
x0"
x1"
x2"
xQ!
xP!
xO!
xN!
xM!
xL!
xK!
xJ!
xI!
xH!
xG!
0}
x|
x{
xz
xy
xx
xw
xv
xu
xt
$end
#1
0r
0Q!
0d!
#2
1"
1}
#3
1r
1Q!
xd!
0e!
#4
b1 #
0"
0}
#5
0r
0Q!
0d!
xe!
#6
1"
1}
#7
1r
1Q!
xd!
0e!
#8
b10 #
0"
0}
#9
0r
0Q!
0d!
xe!
#10
1"
1}
#11
1r
1Q!
xd!
0e!
#12
b11 #
0"
0}
#13
0r
0Q!
0d!
xe!
#14
1"
1}
#15
1r
1Q!
xd!
0e!
#16
b100 #
0"
0}
#17
0r
0Q!
0d!
xe!
#18
1"
1}
#19
1r
1Q!
xd!
0e!
#20
b101 #
0"
0}
#21
0r
0Q!
0d!
xe!
#22
1"
1}
#23
1r
1Q!
xd!
0e!
#24
b110 #
0"
0}
#25
0r
0Q!
0d!
xe!
#26
1"
1}
#27
1r
1Q!
xd!
0e!
#28
b111 #
0"
0}
#29
0r
0Q!
0d!
xe!
#30
1"
1}
#31
1r
1Q!
xd!
0e!
#32
b1000 #
0"
0}
#33
0r
0Q!
0d!
xe!
#34
1"
1}
#35
1r
1Q!
xd!
0e!
#36
b1001 #
0"
0}
#37
0r
0Q!
0d!
xe!
#38
1"
1}
#39
1r
1Q!
xd!
0e!
#40
b1010 #
0"
0}
#41
0r
0Q!
0d!
xe!
#42
1"
1}
#43
1r
1Q!
xd!
0e!
#44
b1011 #
0"
0}
#45
0r
0Q!
0d!
xe!
#46
1"
1}
#47
1r
1Q!
xd!
0e!
#48
b1100 #
0"
0}
#49
0r
0Q!
0d!
xe!
#50
1"
1}
#51
1r
1Q!
xd!
0e!
#52
b1101 #
0"
0}
#53
0r
0Q!
0d!
xe!
#54
1"
1}
#55
1r
1Q!
xd!
0e!
#56
b1110 #
0"
0}
#57
0r
0Q!
0d!
xe!
#58
1"
1}
#59
1r
1Q!
xd!
0e!
#60
b1111 #
0"
0}
#61
0r
0Q!
0d!
xe!
#62
1"
1}
#63
1r
1Q!
xd!
0e!
#64
b10000 #
0"
0}
#65
0r
0Q!
0d!
xe!
#66
1"
1}
#67
1r
1Q!
xd!
0e!
#68
b10001 #
0"
0}
#69
0r
0Q!
0d!
xe!
#70
1"
1}
#71
1r
1Q!
xd!
0e!
#72
b10010 #
0"
0}
#73
0r
0Q!
0d!
xe!
#74
1"
1}
#75
1r
1Q!
xd!
0e!
#76
b10011 #
0"
0}
#77
0r
0Q!
0d!
xe!
#78
1"
1}
#79
1r
1Q!
xd!
0e!
#80
b10100 #
0"
0}
#81
0r
0Q!
0d!
xe!
#82
1"
1}
#83
1r
1Q!
xd!
0e!
#84
b10101 #
0"
0}
#85
0r
0Q!
0d!
xe!
#86
1"
1}
#87
1r
1Q!
xd!
0e!
#88
b10110 #
0"
0}
#89
0r
0Q!
0d!
xe!
#90
1"
1}
#91
1r
1Q!
xd!
0e!
#92
b10111 #
0"
0}
#93
0r
0Q!
0d!
xe!
#94
1"
1}
#95
1r
1Q!
xd!
0e!
#96
b11000 #
0"
0}
#97
0r
0Q!
0d!
xe!
#98
1"
1}
#99
1r
1Q!
xd!
0e!
#100
b11001 #
0"
0}
#101
0r
0Q!
0d!
xe!
#102
1"
1}
#103
1r
1Q!
xd!
0e!
#104
b11010 #
0"
0}
#105
0r
0Q!
0d!
xe!
#106
1"
1}
#107
1r
1Q!
xd!
0e!
#108
b11011 #
0"
0}
#109
0r
0Q!
0d!
xe!
#110
1"
1}
#111
1r
1Q!
xd!
0e!
#112
b11100 #
0"
0}
#113
0r
0Q!
0d!
xe!
#114
1"
1}
#115
1r
1Q!
xd!
0e!
#116
b11101 #
0"
0}
#117
0r
0Q!
0d!
xe!
#118
1"
1}
#119
1r
1Q!
xd!
0e!
#120
b11110 #
0"
0}
#121
0r
0Q!
0d!
xe!
#122
1"
1}
#123
1r
1Q!
xd!
0e!
#124
b11111 #
0"
0}
#125
0r
0Q!
0d!
xe!
#126
1"
1}
#127
1r
1Q!
xd!
0e!
#128
b100000 #
0"
0}
#129
0r
0Q!
0d!
xe!
#130
1"
1}
#131
1r
1Q!
xd!
0e!
#132
b100001 #
0"
0}
#133
0r
0Q!
0d!
xe!
#134
1"
1}
#135
1r
1Q!
xd!
0e!
#136
b100010 #
0"
0}
#137
0r
0Q!
0d!
xe!
#138
1"
1}
#139
1r
1Q!
xd!
0e!
#140
b100011 #
0"
0}
#141
0r
0Q!
0d!
xe!
#142
1"
1}
#143
1r
1Q!
xd!
0e!
#144
b100100 #
0"
0}
#145
0r
0Q!
0d!
xe!
#146
1"
1}
#147
1r
1Q!
xd!
0e!
#148
b100101 #
0"
0}
#149
0r
0Q!
0d!
xe!
#150
1"
1}
#151
1r
1Q!
xd!
0e!
#152
b100110 #
0"
0}
#153
0r
0Q!
0d!
xe!
#154
1"
1}
#155
1r
1Q!
xd!
0e!
#156
b100111 #
0"
0}
#157
0r
0Q!
0d!
xe!
#158
1"
1}
#159
1r
1Q!
xd!
0e!
#160
b101000 #
0"
0}
#161
0r
0Q!
0d!
xe!
#162
1"
1}
#163
1r
1Q!
xd!
0e!
#164
b101001 #
0"
0}
#165
0r
0Q!
0d!
xe!
#166
1"
1}
#167
1r
1Q!
xd!
0e!
#168
b101010 #
0"
0}
#169
0r
0Q!
0d!
xe!
#170
1"
1}
#171
1r
1Q!
xd!
0e!
#172
b101011 #
0"
0}
#173
0r
0Q!
0d!
xe!
#174
1"
1}
#175
1r
1Q!
xd!
0e!
#176
b101100 #
0"
0}
#177
0r
0Q!
0d!
xe!
#178
1"
1}
#179
1r
1Q!
xd!
0e!
#180
b101101 #
0"
0}
#181
0r
0Q!
0d!
xe!
#182
1"
1}
#183
1r
1Q!
xd!
0e!
#184
b101110 #
0"
0}
#185
0r
0Q!
0d!
xe!
#186
1"
1}
#187
1r
1Q!
xd!
0e!
#188
b101111 #
0"
0}
#189
0r
0Q!
0d!
xe!
#190
1"
1}
#191
1r
1Q!
xd!
0e!
#192
b110000 #
0"
0}
#193
0r
0Q!
0d!
xe!
#194
1"
1}
#195
1r
1Q!
xd!
0e!
#196
b110001 #
0"
0}
#197
0r
0Q!
0d!
xe!
#198
1"
1}
#199
1r
1Q!
xd!
0e!
#200
b110010 #
0"
0}
#201
0r
0Q!
0d!
xe!
#202
1"
1}
#203
1r
1Q!
xd!
0e!
#204
b110011 #
0"
0}
#205
0r
0Q!
0d!
xe!
#206
1"
1}
#207
1r
1Q!
xd!
0e!
#208
b110100 #
0"
0}
#209
0r
0Q!
0d!
xe!
#210
1"
1}
#211
1r
1Q!
xd!
0e!
#212
b110101 #
0"
0}
#213
0r
0Q!
0d!
xe!
#214
1"
1}
#215
1r
1Q!
xd!
0e!
#216
b110110 #
0"
0}
#217
0r
0Q!
0d!
xe!
#218
1"
1}
#219
1r
1Q!
xd!
0e!
#220
b110111 #
0"
0}
#221
0r
0Q!
0d!
xe!
#222
1"
1}
#223
1r
1Q!
xd!
0e!
#224
b111000 #
0"
0}
#225
0r
0Q!
0d!
xe!
#226
1"
1}
#227
1r
1Q!
xd!
0e!
#228
b111001 #
0"
0}
#229
0r
0Q!
0d!
xe!
#230
1"
1}
#231
1r
1Q!
xd!
0e!
#232
b111010 #
0"
0}
#233
0r
0Q!
0d!
xe!
#234
1"
1}
#235
1r
1Q!
xd!
0e!
#236
b111011 #
0"
0}
#237
0r
0Q!
0d!
xe!
#238
1"
1}
#239
1r
1Q!
xd!
0e!
#240
b111100 #
0"
0}
#241
0r
0Q!
0d!
xe!
#242
1"
1}
#243
1r
1Q!
xd!
0e!
#244
b111101 #
0"
0}
#245
0r
0Q!
0d!
xe!
#246
1"
1}
#247
1r
1Q!
xd!
0e!
#248
b111110 #
0"
0}
#249
0r
0Q!
0d!
xe!
#250
1"
1}
#251
1r
1Q!
xd!
0e!
#252
b111111 #
0"
0}
#253
0r
0Q!
0d!
xe!
#254
1"
1}
#255
1r
1Q!
xd!
0e!
#256
b1000000 #
0"
0}
#257
0r
0Q!
0d!
xe!
#258
1"
1}
#259
1r
1Q!
xd!
0e!
#260
b1000001 #
0"
0}
#261
0r
0Q!
0d!
xe!
#262
1"
1}
#263
1r
1Q!
xd!
0e!
#264
b1000010 #
0"
0}
#265
0r
0Q!
0d!
xe!
#266
1"
1}
#267
1r
1Q!
xd!
0e!
#268
b1000011 #
0"
0}
#269
0r
0Q!
0d!
xe!
#270
1"
1}
#271
1r
1Q!
xd!
0e!
#272
b1000100 #
0"
0}
#273
0r
0Q!
0d!
xe!
#274
1"
1}
#275
1r
1Q!
xd!
0e!
#276
b1000101 #
0"
0}
#277
0r
0Q!
0d!
xe!
#278
1"
1}
#279
1r
1Q!
xd!
0e!
#280
b1000110 #
0"
0}
#281
0r
0Q!
0d!
xe!
#282
1"
1}
#283
1r
1Q!
xd!
0e!
#284
b1000111 #
0"
0}
#285
0r
0Q!
0d!
xe!
#286
1"
1}
#287
1r
1Q!
xd!
0e!
#288
b1001000 #
0"
0}
#289
0r
0Q!
0d!
xe!
#290
1"
1}
#291
1r
1Q!
xd!
0e!
#292
b1001001 #
0"
0}
#293
0r
0Q!
0d!
xe!
#294
1"
1}
#295
1r
1Q!
xd!
0e!
#296
b1001010 #
0"
0}
#297
0r
0Q!
0d!
xe!
#298
1"
1}
#299
1r
1Q!
xd!
0e!
#300
b1001011 #
0"
0}
