SD3/VERILOG/aula3-8b10b/sim_8b10b/dump.vcd
$date
	Mon Jun 23 22:07:40 2025
$end
$version
	Questa Lattice OEM Edition 2024.2
$end
$timescale
	1ns
$end

$scope module test_8b10b $end
$var reg 9 ! testin [8:0] $end
$var reg 1 " dispin $end
$var reg 11 # i [10:0] $end
$var wire 1 $ testout [9] $end
$var wire 1 % testout [8] $end
$var wire 1 & testout [7] $end
$var wire 1 ' testout [6] $end
$var wire 1 ( testout [5] $end
$var wire 1 ) testout [4] $end
$var wire 1 * testout [3] $end
$var wire 1 + testout [2] $end
$var wire 1 , testout [1] $end
$var wire 1 - testout [0] $end
$var wire 1 . dispout $end
$var wire 1 / decodedisp $end
$var wire 1 0 decodeerr $end
$var wire 1 1 disperr $end
$var wire 1 2 decodeout [8] $end
$var wire 1 3 decodeout [7] $end
$var wire 1 4 decodeout [6] $end
$var wire 1 5 decodeout [5] $end
$var wire 1 6 decodeout [4] $end
$var wire 1 7 decodeout [3] $end
$var wire 1 8 decodeout [2] $end
$var wire 1 9 decodeout [1] $end
$var wire 1 : decodeout [0] $end
$var wire 1 ; code [29] $end
$var wire 1 < code [28] $end
$var wire 1 = code [27] $end
$var wire 1 > code [26] $end
$var wire 1 ? code [25] $end
$var wire 1 @ code [24] $end
$var wire 1 A code [23] $end
$var wire 1 B code [22] $end
$var wire 1 C code [21] $end
$var wire 1 D code [20] $end
$var wire 1 E code [19] $end
$var wire 1 F code [18] $end
$var wire 1 G code [17] $end
$var wire 1 H code [16] $end
$var wire 1 I code [15] $end
$var wire 1 J code [14] $end
$var wire 1 K code [13] $end
$var wire 1 L code [12] $end
$var wire 1 M code [11] $end
$var wire 1 N code [10] $end
$var wire 1 O code [9] $end
$var wire 1 P code [8] $end
$var wire 1 Q code [7] $end
$var wire 1 R code [6] $end
$var wire 1 S code [5] $end
$var wire 1 T code [4] $end
$var wire 1 U code [3] $end
$var wire 1 V code [2] $end
$var wire 1 W code [1] $end
$var wire 1 X code [0] $end
$var wire 1 Y expect_0_disp [9] $end
$var wire 1 Z expect_0_disp [8] $end
$var wire 1 [ expect_0_disp [7] $end
$var wire 1 \ expect_0_disp [6] $end
$var wire 1 ] expect_0_disp [5] $end
$var wire 1 ^ expect_0_disp [4] $end
$var wire 1 _ expect_0_disp [3] $end
$var wire 1 ` expect_0_disp [2] $end
$var wire 1 a expect_0_disp [1] $end
$var wire 1 b expect_0_disp [0] $end
$var wire 1 c expect_1_disp [9] $end
$var wire 1 d expect_1_disp [8] $end
$var wire 1 e expect_1_disp [7] $end
$var wire 1 f expect_1_disp [6] $end
$var wire 1 g expect_1_disp [5] $end
$var wire 1 h expect_1_disp [4] $end
$var wire 1 i expect_1_disp [3] $end
$var wire 1 j expect_1_disp [2] $end
$var wire 1 k expect_1_disp [1] $end
$var wire 1 l expect_1_disp [0] $end
$var reg 1024 m legal [1023:0] $end
$var reg 2048 n okdisp [2047:0] $end
$var reg 11 o codedisp0 [10:0] $end
$var reg 11 p codedisp1 [10:0] $end
$var reg 10 q decodein [9:0] $end
$var reg 1 r decdispin $end
$var integer 32 s errors $end

$scope module DUTE $end
$var wire 1 t datain [8] $end
$var wire 1 u datain [7] $end
$var wire 1 v datain [6] $end
$var wire 1 w datain [5] $end
$var wire 1 x datain [4] $end
$var wire 1 y datain [3] $end
$var wire 1 z datain [2] $end
$var wire 1 { datain [1] $end
$var wire 1 | datain [0] $end
$var wire 1 } dispin $end
$var wire 1 $ dataout [9] $end
$var wire 1 % dataout [8] $end
$var wire 1 & dataout [7] $end
$var wire 1 ' dataout [6] $end
$var wire 1 ( dataout [5] $end
$var wire 1 ) dataout [4] $end
$var wire 1 * dataout [3] $end
$var wire 1 + dataout [2] $end
$var wire 1 , dataout [1] $end
$var wire 1 - dataout [0] $end
$var wire 1 . dispout $end
$var wire 1 ~ ai $end
$var wire 1 !! bi $end
$var wire 1 "! ci $end
$var wire 1 #! di $end
$var wire 1 $! ei $end
$var wire 1 %! fi $end
$var wire 1 &! gi $end
$var wire 1 '! hi $end
$var wire 1 (! ki $end
$var wire 1 )! aeqb $end
$var wire 1 *! ceqd $end
$var wire 1 +! l22 $end
$var wire 1 ,! l40 $end
$var wire 1 -! l04 $end
$var wire 1 .! l13 $end
$var wire 1 /! l31 $end
$var wire 1 0! ao $end
$var wire 1 1! bo $end
$var wire 1 2! co $end
$var wire 1 3! do $end
$var wire 1 4! eo $end
$var wire 1 5! io $end
$var wire 1 6! pd1s6 $end
$var wire 1 7! nd1s6 $end
$var wire 1 8! ndos6 $end
$var wire 1 9! pdos6 $end
$var wire 1 :! alt7 $end
$var wire 1 ;! fo $end
$var wire 1 <! go $end
$var wire 1 =! ho $end
$var wire 1 >! jo $end
$var wire 1 ?! nd1s4 $end
$var wire 1 @! pd1s4 $end
$var wire 1 A! ndos4 $end
$var wire 1 B! pdos4 $end
$var wire 1 C! illegalk $end
$var wire 1 D! compls6 $end
$var wire 1 E! disp6 $end
$var wire 1 F! compls4 $end
$upscope $end

$scope module DUTD $end
$var wire 1 G! datain [9] $end
$var wire 1 H! datain [8] $end
$var wire 1 I! datain [7] $end
$var wire 1 J! datain [6] $end
$var wire 1 K! datain [5] $end
$var wire 1 L! datain [4] $end
$var wire 1 M! datain [3] $end
$var wire 1 N! datain [2] $end
$var wire 1 O! datain [1] $end
$var wire 1 P! datain [0] $end
$var wire 1 Q! dispin $end
$var wire 1 2 dataout [8] $end
$var wire 1 3 dataout [7] $end
$var wire 1 4 dataout [6] $end
$var wire 1 5 dataout [5] $end
$var wire 1 6 dataout [4] $end
$var wire 1 7 dataout [3] $end
$var wire 1 8 dataout [2] $end
$var wire 1 9 dataout [1] $end
$var wire 1 : dataout [0] $end
$var wire 1 / dispout $end
$var wire 1 0 code_err $end
$var wire 1 1 disp_err $end
$var wire 1 R! ai $end
$var wire 1 S! bi $end
$var wire 1 T! ci $end
$var wire 1 U! di $end
$var wire 1 V! ei $end
$var wire 1 W! ii $end
$var wire 1 X! fi $end
$var wire 1 Y! gi $end
$var wire 1 Z! hi $end
$var wire 1 [! ji $end
$var wire 1 \! aeqb $end
$var wire 1 ]! ceqd $end
$var wire 1 ^! p22 $end
$var wire 1 _! p13 $end
$var wire 1 `! p31 $end
$var wire 1 a! p40 $end
$var wire 1 b! p04 $end
$var wire 1 c! disp6a $end
$var wire 1 d! disp6a2 $end
$var wire 1 e! disp6a0 $end
$var wire 1 f! disp6b $end
$var wire 1 g! p22bceeqi $end
$var wire 1 h! p22bncneeqi $end
$var wire 1 i! p13in $end
$var wire 1 j! p31i $end
$var wire 1 k! p13dei $end
$var wire 1 l! p22aceeqi $end
$var wire 1 m! p22ancneeqi $end
$var wire 1 n! p13en $end
$var wire 1 o! anbnenin $end
$var wire 1 p! abei $end
$var wire 1 q! cdei $end
$var wire 1 r! cndnenin $end
$var wire 1 s! compa $end
$var wire 1 t! compb $end
$var wire 1 u! compc $end
$var wire 1 v! compd $end
$var wire 1 w! compe $end
$var wire 1 x! ao $end
$var wire 1 y! bo $end
$var wire 1 z! co $end
$var wire 1 {! do $end
$var wire 1 |! eo $end
$var wire 1 }! p22enin $end
$var wire 1 ~! p22ei $end
$var wire 1 !" p31dnenin $end
$var wire 1 "" p31e $end
$var wire 1 #" feqg $end
$var wire 1 $" heqj $end
$var wire 1 %" fghj22 $end
$var wire 1 &" fghjp13 $end
$var wire 1 '" fghjp31 $end
$var wire 1 (" ko $end
$var wire 1 )" alt7 $end
$var wire 1 *" k28 $end
$var wire 1 +" k28p $end
$var wire 1 ," fo $end
$var wire 1 -" go $end
$var wire 1 ." ho $end
$var wire 1 /" disp6p $end
$var wire 1 0" disp6n $end
$var wire 1 1" disp4p $end
$var wire 1 2" disp4n $end
$upscope $end
$upscope $end
$enddefinitions $end
#0
$dumpvars
b0 !
0"
b0 #
bx m
bx n
bx o
bx p
bx q
xr
b0 s
1-
0,
0+
1*
1)
1(
0'
1&
0%
0$
0.
x/
x0
x1
x:
x9
x8
x7
x6
x5
x4
x3
x2
0X
1W
1V
0U
1T
0S
0R
0Q
1P
1O
0N
0M
0L
1K
0J
1I
1H
1G
0F
0E
1D
0C
0B
0A
0@
0?
0>
0=
0<
0;
1b
0a
0`
1_
1^
1]
0\
1[
0Z
0Y
0l
1k
1j
0i
0h
0g
1f
0e
1d
1c
0~
0!!
0"!
0#!
0$!
0%!
0&!
0'!
0(!
1)!
1*!
0+!
0,!
1-!
0.!
0/!
00!
11!
12!
03!
04!
05!
16!
07!
18!
09!
0:!
0;!
1<!
0=!
0>!
0?!
1@!
1A!
0B!
0C!
1D!
1E!
0F!
xR!
xS!
xT!
xU!
xV!
xW!
xX!
xY!
xZ!
x[!
x\!
x]!
x^!
x_!
x`!
xa!
xb!
xc!
xd!
xe!
xf!
xg!
xh!
xi!
xj!
xk!
xl!
xm!
xn!
xo!
xp!
xq!
xr!
xs!
xt!
xu!
xv!
xw!
xx!
xy!
xz!
x{!
x|!
x}!
x~!
x!"
x""
x#"
x$"
x%"
x&"
x'"
x("
x)"
x*"
x+"
x,"
x-"
x."
x/"
x0"
x1"
x2"
xQ!
xP!
xO!
xN!
xM!
xL!
xK!
xJ!
xI!
xH!
xG!
0}
0|
0{
0z
0y
0x
0w
0v
0u
0t
$end
#1
b10111001 q
0r
1P!
0O!
0N!
1M!
1L!
1K!
0J!
1I!
0H!
0G!
0Q!
0d!
0[!
0Z!
1Y!
0X!
1W!
1V!
1U!
0T!
0S!
1R!
0\!
0_!
0m!
0`!
0p!
0]!
0a!
0g!
0l!
0q!
0*"
0b!
1f!
0n!
00"
0i!
0o!
0r!
0}!
0!"
0+"
0#"
0'"
0,"
0-"
0."
1$"
0/
0%"
01"
1&"
1^!
0c!
0j!
0""
0e!
0k!
0t!
0u!
1h!
1~!
1/"
12"
1s!
1v!
1w!
0z!
0y!
0|!
0{!
0x!
01
0)"
00
0:
09
08
07
06
05
04
03
0("
02
#2
1"
1}
0D!
0E!
1F!
1.
0-
1,
1+
0*
0)
0(
1'
0&
1%
1$
#3
b1101000110 q
1r
0P!
1O!
1N!
0M!
0L!
0K!
1J!
0I!
1H!
1G!
1Q!
1c!
1[!
1Z!
0Y!
1X!
0W!
0V!
0U!
1T!
1S!
0R!
1x!
1g!
1y!
1z!
1{!
0f!
1|!
1}!
10"
0h!
0~!
0/"
1'"
1/
0&"
02"
11"
0s!
0v!
0w!
1t!
1u!
0z!
0y!
0|!
0{!
0x!
#4
b1 #
0"
0}
1D!
1E!
0F!
0.
1-
0,
0+
1*
1)
1(
0'
1&
0%
0$
1R
0P
0O
1N
0H
1F
1E
0D
1C
0b
1a
1`
0^
1l
0k
0j
1h
b1 !
1|
1~
0)!
0-!
10!
01!
02!
1.!
14!
0-
1,
1+
0)
#5
b10101110 q
0r
1M!
1K!
0J!
1I!
0H!
0G!
0Q!
0c!
0[!
0Z!
1Y!
0X!
1W!
1U!
1]!
1`!
1{!
0g!
0}!
00"
1&"
0/
0'"
01"
12"
0t!
0u!
1c!
1j!
1/"
0^!
1s!
1t!
1u!
1v!
1f!
0{!
1x!
1:
#6
1"
1}
0D!
0E!
1F!
1.
1-
0,
0+
0*
1)
0(
1'
0&
1%
1$
#7
b1101010001 q
1r
1P!
0O!
0N!
0M!
1L!
0K!
1J!
0I!
1H!
1G!
1Q!
1d!
1[!
1Z!
0Y!
1X!
0W!
1V!
0U!
0T!
0S!
1R!
0x!
1y!
1_!
1z!
0`!
1{!
1|!
0j!
0/"
1'"
1/
0&"
02"
11"
0s!
0t!
0u!
0v!
0c!
0d!
1i!
10"
1w!
0f!
0{!
0z!
0y!
1x!
0|!
#8
b10 #
0"
0}
1D!
1E!
0F!
0.
0-
1,
1+
1*
0)
1(
0'
1&
0%
0$
1O
0N
0E
1D
0C
1B
1b
0a
0l
1k
b10 !
0|
1{
1!!
0~
00!
11!
1-
0,
#9
b10101101 q
0r
1N!
1M!
0L!
1K!
0J!
1I!
0H!
0G!
0Q!
1e!
0[!
0Z!
1Y!
0X!
1W!
0V!
1U!
1T!
1`!
1z!
0_!
1{!
1|!
0i!
00"
1&"
0/
0'"
01"
12"
0w!
0e!
1c!
1j!
1/"
1s!
1t!
1u!
1v!
1f!
0|!
0{!
0z!
1y!
0x!
0:
19
#10
1"
1}
0D!
0E!
1F!
1.
0-
1,
0+
0*
1)
0(
1'
0&
1%
1$
#11
b1101010010 q
1r
0P!
1O!
0N!
0M!
1L!
0K!
1J!
0I!
1H!
1G!
1Q!
1d!
1[!
1Z!
0Y!
1X!
0W!
1V!
0U!
0T!
1S!
0R!
1x!
0y!
1_!
1z!
0`!
1{!
1|!
0j!
0/"
1'"
1/
0&"
02"
11"
0s!
0t!
0u!
0v!
0c!
0d!
1i!
10"
1w!
0f!
0{!
0z!
1y!
0x!
0|!
#12
b11 #
0"
0}
1D!
1E!
0F!
0.
1-
0,
1+
1*
0)
1(
0'
1&
0%
0$
1X
0W
0V
1U
0T
1S
0R
1N
1M
1L
0K
1J
0G
0F
1E
1C
1a
0`
0_
1\
0[
1Z
1Y
1l
0h
1g
0f
1e
0d
0c
b11 !
1|
1~
1)!
1+!
10!
15!
06!
0.!
04!
08!
0D!
0E!
1F!
1.
1,
0+
0*
1'
0&
1%
1$
#13
b1101100011 q
0r
1P!
0L!
1K!
0Q!
1e!
1W!
0V!
1R!
1\!
1^!
1x!
1n!
1|!
0i!
1s!
1t!
1u!
1v!
0_!
0e!
0n!
00"
1{!
1z!
0y!
0x!
0s!
0t!
0u!
0v!
0w!
0|!
0{!
0z!
1y!
1x!
1:
#14
1"
1}
1E!
0F!
0.
0'
1&
0%
0$
#15
b10100011 q
1r
0J!
1I!
0H!
0G!
1Q!
1c!
0[!
0Z!
1Y!
0X!
1&"
0/
0'"
1f!
01"
12"
#16
b100 #
0"
0}
0E!
1F!
1.
1'
0&
1%
1$
0X
1W
1V
0U
1T
0S
1R
1P
0O
0N
0M
0L
1K
0J
1G
0C
0B
1A
1_
0\
1[
0Z
0Y
0l
0k
1j
1h
0g
1f
0e
1d
1c
b100 !
0|
0{
1z
1"!
0!!
0~
00!
01!
0*!
0+!
12!
05!
16!
1.!
14!
18!
1D!
1E!
0F!
0.
1*
0'
1&
0%
0$
#17
b10101011 q
0r
1M!
0Q!
0c!
1U!
0]!
0^!
1{!
0f!
1`!
1c!
1j!
1/"
1s!
1t!
1u!
1v!
1f!
0{!
1z!
0y!
0x!
0:
09
18
#18
1"
1}
0D!
0E!
1F!
1.
0-
0,
1+
0*
1)
0(
1'
0&
1%
1$
#19
b1101010100 q
1r
0P!
0O!
1N!
0M!
1L!
0K!
1J!
0I!
1H!
1G!
1Q!
1d!
1[!
1Z!
0Y!
1X!
0W!
1V!
0U!
1T!
0S!
0R!
1_!
1x!
0`!
1y!
0z!
1{!
1|!
0j!
0/"
1'"
1/
0&"
02"
11"
0s!
0t!
0u!
0v!
0c!
0d!
1i!
10"
1w!
0f!
0{!
1z!
0y!
0x!
0|!
#20
b101 #
0"
0}
1D!
1E!
0F!
0.
1-
1,
0+
1*
0)
1(
0'
1&
0%
0$
1X
0W
0V
1U
0T
1S
0R
1N
1M
1L
0K
1J
0G
1F
0E
1C
0a
1`
0_
1\
0[
1Z
1Y
1l
0h
1g
0f
1e
0d
0c
b101 !
1|
1~
0)!
0.!
10!
04!
1+!
15!
06!
08!
0D!
0E!
1F!
1.
0,
1+
0*
1'
0&
1%
1$
#21
b1101100101 q
0r
1P!
0L!
1K!
0Q!
1e!
1W!
0V!
1R!
0\!
0_!
1x!
1|!
0i!
00"
0w!
0e!
1^!
0|!
1:
#22
1"
1}
1E!
0F!
0.
0'
1&
0%
0$
#23
b10100101 q
1r
0J!
1I!
0H!
0G!
1Q!
1c!
0[!
0Z!
1Y!
0X!
1&"
0/
0'"
1f!
01"
12"
#24
b110 #
0"
0}
0E!
1F!
1.
1'
0&
1%
1$
1O
0N
1E
0D
0C
1B
0b
1a
0l
1k
b110 !
0|
1{
1!!
0~
00!
11!
0-
1,
#25
b1101100110 q
0r
0P!
1O!
1J!
0I!
1H!
1G!
0Q!
0c!
1[!
1Z!
0Y!
1X!
1S!
0R!
0x!
1y!
1'"
1/
0&"
0f!
02"
11"
0:
19
#26
1"
1}
1E!
0F!
0.
0'
1&
0%
0$
#27
b10100110 q
1r
0J!
1I!
0H!
0G!
1Q!
1c!
0[!
0Z!
1Y!
0X!
1&"
0/
0'"
1f!
01"
12"
#28
b111 #
0"
0}
0E!
1F!
1.
1'
0&
1%
1$
1R
1Q
0P
0O
0I
1D
1C
1b
0]
0k
0j
1i
1h
b111 !
1|
1~
1)!
1/!
10!
17!
0+!
05!
1-
0(
#29
b1101000111 q
0r
1P!
0K!
1J!
0I!
1H!
1G!
0Q!
0c!
1[!
1Z!
0Y!
1X!
0W!
1R!
1\!
1`!
1l!
1x!
1g!
1}!
10"
1'"
1/
0&"
0f!
02"
11"
1u!
1t!
1v!
1c!
1!"
0^!
0g!
0l!
0}!
00"
1{!
0y!
0z!
0t!
0v!
0u!
1z!
0{!
1y!
1:
#30
1"
1}
1D!
1E!
0F!
0.
0-
0,
0+
1*
1)
1(
0'
1&
0%
0$
#31
b10111000 q
1r
0P!
0O!
0N!
1M!
1L!
1K!
0J!
1I!
0H!
0G!
1Q!
1d!
0[!
0Z!
1Y!
0X!
1W!
1V!
1U!
0T!
0S!
0R!
1_!
0x!
0`!
0y!
0z!
1{!
1|!
1f!
0!"
1&"
0/
0'"
01"
12"
0c!
0d!
1k!
1s!
1t!
1u!
1v!
1w!
0|!
0{!
1z!
1y!
1x!
#32
b1000 #
0"
0}
0D!
0E!
1F!
1.
1-
1,
1+
0*
0)
0(
1'
0&
1%
1$
0X
1W
1V
0U
1T
0S
0M
0L
1K
0J
1I
0C
0B
0A
1@
1]
0\
1[
0Z
0Y
0g
1f
0e
1d
1c
b1000 !
0|
0{
0z
1y
1#!
0"!
0!!
0~
1.!
00!
0/!
01!
02!
13!
07!
16!
14!
18!
1D!
1E!
0F!
0.
1(
0'
1&
0%
0$
#33
b10100111 q
0r
1P!
1O!
1N!
0M!
0L!
0Q!
1e!
0V!
0U!
1T!
1S!
1R!
1`!
0x!
0_!
0y!
0z!
1{!
0f!
0k!
1|!
0s!
0t!
0u!
0v!
0w!
0e!
1c!
1j!
1/"
1s!
1t!
1u!
1v!
1f!
0|!
0:
09
08
17
#34
1"
1}
0D!
0E!
1F!
1.
0-
0,
0+
1*
1)
0(
1'
0&
1%
1$
#35
b1101011000 q
1r
0P!
0O!
0N!
1M!
1L!
0K!
1J!
0I!
1H!
1G!
1Q!
1d!
1[!
1Z!
0Y!
1X!
0W!
1V!
1U!
0T!
0S!
0R!
1_!
1x!
0`!
1y!
1z!
0{!
1|!
0j!
0/"
1'"
1/
0&"
02"
11"
0s!
0t!
0u!
0v!
0c!
0d!
1i!
10"
1w!
0f!
1{!
0z!
0y!
0x!
0|!
#36
b1001 #
0"
0}
1D!
1E!
0F!
0.
1-
1,
1+
0*
0)
1(
0'
1&
0%
0$
1X
0W
0V
1U
0T
1S
0R
1N
1M
1L
0K
1J
1G
0F
0E
1C
0a
0`
1_
1\
0[
1Z
1Y
1l
0h
1g
0f
1e
0d
0c
b1001 !
1|
1~
0)!
0.!
10!
04!
1+!
15!
06!
08!
0D!
0E!
1F!
1.
0,
0+
1*
1'
0&
1%
1$
#37
b1101101001 q
0r
1P!
0L!
1K!
0Q!
1e!
1W!
0V!
1R!
0\!
0_!
1x!
1|!
0i!
00"
0w!
0e!
1^!
0|!
1:
#38
1"
1}
1E!
0F!
0.
0'
1&
0%
0$
#39
b10101001 q
1r
0J!
1I!
0H!
0G!
1Q!
1c!
0[!
0Z!
1Y!
0X!
1&"
0/
0'"
1f!
01"
12"
#40
b1010 #
0"
0}
0E!
1F!
1.
1'
0&
1%
1$
1O
0N
1E
0D
0C
1B
0b
1a
0l
1k
b1010 !
0|
1{
1!!
0~
00!
11!
0-
1,
#41
b1101101010 q
0r
0P!
1O!
1J!
0I!
1H!
1G!
0Q!
0c!
1[!
1Z!
0Y!
1X!
1S!
0R!
0x!
1y!
1'"
1/
0&"
0f!
02"
11"
0:
19
#42
1"
1}
1E!
0F!
0.
0'
1&
0%
0$
#43
b10101010 q
1r
0J!
1I!
0H!
0G!
1Q!
1c!
0[!
0Z!
1Y!
0X!
1&"
0/
0'"
1f!
01"
12"
#44
b1011 #
0"
0}
0E!
1F!
1.
1'
0&
1%
1$
0S
1N
0I
1D
1C
1b
0]
1l
0g
b1011 !
1|
1~
1)!
1/!
10!
0+!
05!
1-
0(
#45
b1101001011 q
0r
1P!
0K!
1J!
0I!
1H!
1G!
0Q!
0c!
1[!
1Z!
0Y!
1X!
0W!
1R!
1\!
1`!
1x!
1}!
10"
1'"
1/
0&"
0f!
02"
11"
1c!
0^!
0}!
00"
1:
#46
1"
1}
1E!
0F!
0.
0'
1&
0%
0$
#47
b10001011 q
1r
0J!
1I!
0H!
0G!
1Q!
1d!
0[!
0Z!
1Y!
0X!
1&"
0/
0'"
1f!
01"
12"
#48
b1100 #
0"
0}
0E!
1F!
1.
1'
0&
1%
1$
1S
1P
0O
0N
1I
1F
0E
0D
0C
0B
1A
0b
0a
1`
1]
0l
0k
1j
1g
b1100 !
0|
0{
1z
1"!
0!!
0~
1+!
1.!
00!
0/!
01!
1*!
12!
0.!
15!
0-
0,
1+
1(
#49
b1101101100 q
0r
0P!
0O!
1N!
1K!
1J!
0I!
1H!
1G!
0Q!
0d!
1[!
1Z!
0Y!
1X!
1W!
1T!
0S!
0R!
1^!
1_!
0x!
0`!
0y!
1]!
1z!
1'"
1/
0&"
02"
11"
0_!
0c!
0f!
0:
09
18
#50
1"
1}
1E!
0F!
0.
0'
1&
0%
0$
#51
b10101100 q
1r
0J!
1I!
0H!
0G!
1Q!
1c!
0[!
0Z!
1Y!
0X!
1&"
0/
0'"
1f!
01"
12"
#52
b1101 #
0"
0}
0E!
1F!
1.
1'
0&
1%
1$
0S
1N
0I
1D
1C
1b
0]
1l
0g
b1101 !
1|
1~
0)!
0+!
10!
05!
16!
1/!
06!
1-
0(
#53
b1101001101 q
0r
1P!
0K!
1J!
0I!
1H!
1G!
0Q!
0c!
1[!
1Z!
0Y!
1X!
0W!
1R!
0\!
0^!
1x!
1'"
1/
0&"
0f!
02"
11"
1`!
1c!
1:
#54
1"
1}
1E!
0F!
0.
0'
1&
0%
0$
#55
b10001101 q
1r
0J!
1I!
0H!
0G!
1Q!
1d!
0[!
0Z!
1Y!
0X!
1&"
0/
0'"
1f!
01"
12"
#56
b1110 #
0"
0}
0E!
1F!
1.
1'
0&
1%
1$
1O
0N
1E
0D
0C
1B
0b
1a
0l
1k
b1110 !
0|
1{
1!!
0~
00!
11!
0-
1,
#57
b1101001110 q
0r
0P!
1O!
1J!
0I!
1H!
1G!
0Q!
0d!
1[!
1Z!
0Y!
1X!
1S!
0R!
0x!
1y!
1'"
1/
0&"
0f!
02"
11"
0:
19
#58
1"
1}
1E!
0F!
0.
0'
1&
0%
0$
#59
b10001110 q
1r
0J!
1I!
0H!
0G!
1Q!
1d!
0[!
0Z!
1Y!
0X!
1&"
0/
0'"
1f!
01"
12"
#60
b1111 #
0"
0}
0E!
1F!
1.
1'
0&
1%
1$
0X
1W
1V
0U
1T
0Q
0O
1N
0M
0L
1K
0J
1I
1H
0F
1C
0`
1^
1]
0\
1[
0Z
0Y
1l
0k
0i
1f
0e
1d
1c
b1111 !
1|
1~
1)!
1,!
10!
03!
01!
0/!
16!
18!
1D!
1E!
0F!
0.
0+
1)
1(
0'
1&
0%
0$
#61
b10111010 q
0r
0N!
1L!
1K!
0Q!
0d!
1W!
1V!
0T!
0]!
0`!
0z!
1|!
0c!
1^!
1m!
1~!
1/"
1s!
1u!
1w!
0|!
1z!
1x!
1:
#62
1"
1}
0D!
0E!
1F!
1.
1-
0,
1+
0*
0)
0(
1'
0&
1%
1$
#63
b1101000101 q
1r
1P!
0O!
1N!
0M!
0L!
0K!
1J!
0I!
1H!
1G!
1Q!
1c!
1[!
1Z!
0Y!
1X!
0W!
0V!
0U!
1T!
0S!
1R!
1l!
0x!
0y!
0z!
0{!
0f!
1|!
1}!
10"
0m!
0~!
0/"
1'"
1/
0&"
02"
11"
0s!
0u!
0w!
1t!
1v!
1{!
1y!
0|!
1z!
1x!
#64
b10000 #
0"
0}
1D!
1E!
0F!
0.
0-
1,
0+
1*
1)
1(
0'
1&
0%
0$
1Q
0P
0G
1F
0C
0B
0A
0@
1?
1`
0_
0j
1i
b10000 !
0|
0{
0z
0y
1x
1$!
0#!
0"!
0!!
0~
1-!
00!
0,!
14!
15!
06!
17!
19!
08!
0D!
11!
1+
0*
#65
b10110110 q
0r
0P!
1O!
1L!
1K!
0J!
1I!
0H!
0G!
0Q!
0c!
0[!
0Z!
1Y!
0X!
1W!
1V!
1S!
0R!
0x!
1g!
0y!
1f!
1|!
1~!
1/"
0l!
0}!
00"
1&"
0/
0'"
01"
12"
0v!
1u!
0z!
0{!
0:
09
08
07
16
#66
1"
1}
1D!
0E!
1F!
1.
1-
0,
0+
1*
0)
0(
1'
0&
1%
1$
#67
b1101001001 q
1r
1P!
0O!
0N!
1M!
0L!
0K!
1J!
0I!
1H!
1G!
1Q!
1c!
1[!
1Z!
0Y!
1X!
0W!
0V!
1U!
0T!
0S!
1R!
1x!
1h!
1y!
1z!
1{!
0f!
0|!
1}!
10"
0g!
0~!
0/"
1'"
1/
0&"
02"
11"
0t!
0u!
1s!
1v!
1w!
1|!
0{!
0x!
0z!
0y!
#68
b10001 #
0"
0}
0D!
1E!
0F!
0.
0-
1,
1+
0*
1)
1(
0'
1&
0%
0$
1X
0W
0V
1U
0T
1S
1R
0Q
1M
1L
0K
1J
0F
0E
1D
1C
1b
0a
0`
1\
0[
1Z
1Y
0i
1h
1g
0f
1e
0d
0c
b10001 !
1|
1~
0)!
0-!
10!
01!
02!
1.!
07!
09!
0E!
1F!
1.
1-
0,
0+
1'
0&
1%
1$
#69
b1101110001 q
0r
0M!
1L!
1K!
0Q!
0c!
1W!
1V!
0U!
1]!
1_!
1{!
1f!
0|!
1~!
1/"
0}!
00"
1e!
0^!
0h!
0~!
0/"
0f!
0s!
0v!
0w!
1|!
0{!
1x!
1:
#70
1"
1}
1E!
0F!
0.
0'
1&
0%
0$
#71
b10110001 q
1r
0J!
1I!
0H!
0G!
1Q!
0e!
0[!
0Z!
1Y!
0X!
1&"
0/
0'"
1f!
01"
12"
#72
b10010 #
0"
0}
0E!
1F!
1.
1'
0&
1%
1$
1O
0N
1E
0D
0C
1B
0b
1a
0l
1k
b10010 !
0|
1{
1!!
0~
00!
11!
0-
1,
#73
b1101110010 q
0r
0P!
1O!
1J!
0I!
1H!
1G!
0Q!
1e!
1[!
1Z!
0Y!
1X!
1S!
0R!
0x!
1y!
1'"
1/
0&"
0f!
02"
11"
0:
19
#74
1"
1}
1E!
0F!
0.
0'
1&
0%
0$
#75
b10110010 q
1r
0J!
1I!
0H!
0G!
1Q!
0e!
0[!
0Z!
1Y!
0X!
1&"
0/
0'"
1f!
01"
12"
#76
b10011 #
0"
0}
0E!
1F!
1.
1'
0&
1%
1$
0S
1N
0I
1D
1C
1b
0]
1l
0g
b10011 !
1|
1~
1)!
1+!
10!
05!
0.!
1-
0(
#77
b1101010011 q
0r
1P!
0K!
1J!
0I!
1H!
1G!
0Q!
1e!
1[!
1Z!
0Y!
1X!
0W!
1R!
1\!
1^!
1x!
1i!
10"
1'"
1/
0&"
0f!
02"
11"
1w!
0_!
0e!
0i!
00"
0|!
0w!
1|!
1:
#78
1"
1}
1E!
0F!
0.
0'
1&
0%
0$
#79
b10010011 q
1r
0J!
1I!
0H!
0G!
1Q!
1c!
0[!
0Z!
1Y!
0X!
1&"
0/
0'"
1f!
01"
12"
#80
b10100 #
0"
0}
0E!
1F!
1.
1'
0&
1%
1$
1S
1P
0O
0N
1I
1F
0E
0D
0C
0B
1A
0b
0a
1`
1]
0l
0k
1j
1g
b10100 !
0|
0{
1z
1"!
0!!
0~
00!
15!
01!
0*!
0+!
12!
17!
19!
1.!
07!
09!
0-
0,
1+
1(
#81
b1101110100 q
0r
0P!
0O!
1N!
1K!
1J!
0I!
1H!
1G!
0Q!
0c!
1[!
1Z!
0Y!
1X!
1W!
1T!
0S!
0R!
0x!
0y!
0]!
0^!
1z!
1'"
1/
0&"
02"
11"
1_!
1e!
0f!
0:
09
18
#82
1"
1}
1E!
0F!
0.
0'
1&
0%
0$
#83
b10110100 q
1r
0J!
1I!
0H!
0G!
1Q!
0e!
0[!
0Z!
1Y!
0X!
1&"
0/
0'"
1f!
01"
12"
#84
b10101 #
0"
0}
0E!
1F!
1.
1'
0&
1%
1$
0S
1N
0I
1D
1C
1b
0]
1l
0g
b10101 !
1|
1~
0)!
0.!
10!
05!
17!
19!
1+!
07!
09!
1-
0(
#85
b1101010101 q
0r
1P!
0K!
1J!
0I!
1H!
1G!
0Q!
1e!
1[!
1Z!
0Y!
1X!
0W!
1R!
0\!
0_!
1x!
1'"
1/
0&"
0f!
02"
11"
0e!
1^!
1:
#86
1"
1}
1E!
0F!
0.
0'
1&
0%
0$
#87
b10010101 q
1r
0J!
1I!
0H!
0G!
1Q!
1c!
0[!
0Z!
1Y!
0X!
1&"
0/
0'"
1f!
01"
12"
#88
b10110 #
0"
0}
0E!
1F!
1.
1'
0&
1%
1$
1O
0N
1E
0D
0C
1B
0b
1a
0l
1k
b10110 !
0|
1{
1!!
0~
00!
11!
0-
1,
#89
b1101010110 q
0r
0P!
1O!
1J!
0I!
1H!
1G!
0Q!
0c!
1[!
1Z!
0Y!
1X!
1S!
0R!
0x!
1y!
1'"
1/
0&"
0f!
02"
11"
0:
19
